{
   "definitions": {},
   "$schema": "http://json-schema.org/draft-06/schema#",
   "$id": "http://example.com/root.json",
   "type": "object",
   "title": "Currency Schema",
   "required": [
     "CurrencyExchangeRateBuy",
     "CurrencyExchangeRateSell"
   ],
   "properties": {
     "CurrencyExchangeRateBuy": {
       "$id": "#/properties/CurrencyExchangeRateBuy",
       "type": "number",
       "multipleOf":0.01,
       "title": "The Currencyexchangeratebuy Schema",
       "examples": [
         16.12,5.95,76.00
       ]
     },
     "CurrencyExchangeRateSell": {
       "$id": "#/properties/CurrencyExchangeRateSell",
       "type": "number",
       "multipleOf":0.01,
       "title": "The Currencyexchangeratesell Schema",
       "default": "",
       "examples": [
         50.42,61.05,99.99
       ]
     }
   }
 }
   