{
    "definitions": {},
    "$schema": "http://json-schema.org/draft-06/schema#",
    "$id": "http://example.com/root.json",
    "type": "object",
    "title": "Store Schema",
    "required": [
        "Number",
        "Name",
        "Address1",
        "City",
        "State",
        "Country",
        "PrimaryCurrencyCode",
        "CountryCode"
    ],
    "properties": {
        "Number": {
            "$id": "#/properties/Number",
            "type": "integer",
            "minimum": 1,
            "title": "The Number Schema",
            "examples": [
                25,3,130
            ]
        },
        "Name": {
            "$id": "#/properties/Name",
            "type": "string",
            "minLength":1,
            "maxLength": 30,
            "title": "The Name Schema",
            "examples": [
                "caballito","recoleta","palermo"
            ]
        },
        "Address1": {
            "$id": "#/properties/Address1",
            "type": "string",
            "maxLength": 40,
            "title": "The Address1 Schema",
            "default": "",
            "examples": [
                "formosa 511","lavalle 1678", "corriente 800"
            ]
        },
        "City": {
            "$id": "#/properties/City",
            "type": "string",
            "title": "The City Schema",
            "maxLength": 50,
            "examples": [
                "Ciudad Autonoma de Buenos Aires","Mendoza","Rioja"
            ]
        },
        "State": {
            "$id": "#/properties/State",
            "type": "string",
            "maxLength": 20,
            "title": "The State Schema",
            "examples": [
                "Buenos Aires","Corrientes", "Rioja"
            ]
    
         },
        "Country": {
        "$id": "#/properties/Country",
        "type": "string",
        "maxLength": 20,
        "title": "The Country Schema",
        "examples": [
          "colombia","panama","argentina"
        ]
        },
        "PrimaryCurrencyCode": {
        "$id": "#/properties/PrimaryCurrencyCode",
        "type": "string",
        "maxLength": 3,
        "title": "The Primarycurrencycode Schema",
        "examples": [
          "TDB"
        ]
        },
        "CountryCode": {
        "$id": "#/properties/CountryCode",
        "type": "string",
        "maxLength": 3,
        "title": "The Countrycode Schema",
        "examples": [
          "TDB"
        ]
      }
    }
}

