{
    "definitions": {},
    "$schema": "http://json-schema.org/draft-06/schema#",
    "$id": "http://example.com/root.json",
    "type": "object",
    "title": "APTOS API Item Schema",
    "required": [
        "SKU",
        "ItemName",
        "ItemDesc",
        "Dept",
        "PermPrice",
        "POSDesc",
        "Class"
    ],
    "properties": {
        "SKU": {
            "$id": "#/properties/SKU",
            "type": "string",
            "minLength" : 1,
            "maxLength" : 50,
            "title": "Item SKU",
            "description": "Represents the SKU number of the item for item identification.",
            "default": "",
            "examples": [
                "0000000000001", "01", "1023123019231"
            ]
        },
        "ItemName": {
            "$id": "#/properties/ItemName",
            "type": "string",
            "maxLength": 30, 
            "title": "Item Name",
            "description": "Name for the item (can be name of style)",
            "default": "",
            "examples": [
                "BOLSA PLASTICA", "PLASTIC BAG", "BAGPACK"
            ]
        },
        "ItemDesc": {
            "$id": "#/properties/ItemDesc",
            "type": "string",
            "maxLength": 50,
            "title": "Item Description",
            "description": "Description for the item",
            "default": "",
            "examples": [
                "BOLSA PLASTICA 50 Litros", "BAGPACK SCHOOL BOY"
            ]
        },
        "Dept": {
            "$id": "#/properties/Dept",
            "type": "integer",
            "minimum": 0,
            "maximum": 9999,
            "title": "Item Department",
            "description": "Department number to which the item belongs; becomes required if SubDept field has a value",
            "examples": [
                28, 1, 9998
            ]
        },
        "PermPrice": {
            "$id": "#/properties/PermPrice",
            "type": "number",
            "title": "Item Permprice",
            "multipleOf": 0.01,
            "description": "Permanent base price for an item",
            "examples": [
                40.05, 1425.00, 50.25
            ]
        },
        "POSDesc": {
            "$id": "#/properties/POSDesc",
            "type": "string",
            "maxLength": 25,
            "title": "Item Posdesc",
            "description": "Shorter version of the ItemDesc attribute; used for printing to screen or to receipt; can be the same as ItemDesc",
            "default": "",
            "examples": [
                "BOLSA PLASTICA", "PLASTIC BAG"
            ]
        },
        "Class": {
            "$id": "#/properties/Class",
            "type": "integer",
            "minLength":0,
            "maxLength": 999999,
            "title": "Item Class",
            "description": "Denotes the class to which an item belongs; becomes required if SubClass field has a value.",
            "examples": [
                37, 48, 9999, 12345
            ]
        }
    },
    "examples": [
        {
            "SKU":"0200029961",
            "ItemName":"GEL DESINFECTANTE DE BOLSILLO ",
            "ItemDesc":"GEL DESINFECTANTE DE BOLSILLO ALOE VERA 29ML",
            "Dept":44,
            "PermPrice":4900,
            "POSDesc":"GEL DESINFECTANTE DE BOLS",
            "Class":130
        }
    ]
}